{
  "customers" : {
    "_id" : "wm-customers-wm.LiveVariable-1452356636612",
    "name" : "customers",
    "owner" : "Page",
    "category" : "wm.LiveVariable",
    "dataBinding" : [ ],
    "operation" : "read",
    "dataSet" : {
      "dataValue" : ""
    },
    "type" : "Customer",
    "isList" : false,
    "saveInPhonegap" : false,
    "firstRow" : 0,
    "maxResults" : 1000,
    "designMaxResults" : 1000,
    "startUpdate" : true,
    "autoUpdate" : true,
    "inFlightBehavior" : "executeLast",
    "transformationRequired" : false,
    "liveSource" : "licensemanagerdb",
    "ignoreCase" : false,
    "matchMode" : "start",
    "propertiesMap" : {
      "columns" : [ {
        "fieldName" : "customerId",
        "type" : "integer",
        "hibernateType" : "integer",
        "fullyQualifiedType" : "integer",
        "columnName" : "customerID",
        "isPrimaryKey" : true,
        "notNull" : true,
        "length" : 255,
        "precision" : 19,
        "generator" : "identity",
        "isRelated" : false,
        "defaultValue" : ""
      }, {
        "fieldName" : "createdBy",
        "type" : "string",
        "hibernateType" : "string",
        "fullyQualifiedType" : "string",
        "columnName" : "createdBy",
        "isPrimaryKey" : false,
        "notNull" : false,
        "length" : 80,
        "precision" : 19,
        "generator" : "assigned",
        "isRelated" : false
      }, {
        "fieldName" : "createdDate",
        "type" : "date",
        "hibernateType" : "date",
        "fullyQualifiedType" : "date",
        "columnName" : "createdDate",
        "isPrimaryKey" : false,
        "notNull" : false,
        "length" : 10,
        "precision" : 19,
        "generator" : "assigned",
        "isRelated" : false
      }, {
        "fieldName" : "address",
        "type" : "string",
        "hibernateType" : "string",
        "fullyQualifiedType" : "string",
        "columnName" : "address",
        "isPrimaryKey" : false,
        "notNull" : false,
        "length" : 255,
        "precision" : 19,
        "generator" : "assigned",
        "isRelated" : false
      }, {
        "fieldName" : "domain",
        "type" : "string",
        "hibernateType" : "string",
        "fullyQualifiedType" : "string",
        "columnName" : "domain",
        "isPrimaryKey" : false,
        "notNull" : false,
        "length" : 80,
        "precision" : 19,
        "generator" : "assigned",
        "isRelated" : false
      }, {
        "fieldName" : "name",
        "type" : "string",
        "hibernateType" : "string",
        "fullyQualifiedType" : "string",
        "columnName" : "name",
        "isPrimaryKey" : false,
        "notNull" : false,
        "length" : 100,
        "precision" : 19,
        "generator" : "assigned",
        "isRelated" : false
      }, {
        "fieldName" : "employees",
        "type" : "integer",
        "hibernateType" : "integer",
        "fullyQualifiedType" : "integer",
        "columnName" : "employees",
        "isPrimaryKey" : false,
        "notNull" : false,
        "length" : 255,
        "precision" : 19,
        "generator" : "assigned",
        "isRelated" : false
      }, {
        "fieldName" : "type",
        "type" : "string",
        "hibernateType" : "string",
        "fullyQualifiedType" : "string",
        "columnName" : "type",
        "isPrimaryKey" : false,
        "notNull" : false,
        "length" : 25,
        "precision" : 19,
        "generator" : "assigned",
        "isRelated" : false
      }, {
        "fieldName" : "website",
        "type" : "string",
        "hibernateType" : "string",
        "fullyQualifiedType" : "string",
        "columnName" : "website",
        "isPrimaryKey" : false,
        "notNull" : false,
        "length" : 255,
        "precision" : 19,
        "generator" : "assigned",
        "isRelated" : false
      }, {
        "fieldName" : "modifiedBy",
        "type" : "string",
        "hibernateType" : "string",
        "fullyQualifiedType" : "string",
        "columnName" : "modifiedBy",
        "isPrimaryKey" : false,
        "notNull" : false,
        "length" : 80,
        "precision" : 19,
        "generator" : "assigned",
        "isRelated" : false
      }, {
        "fieldName" : "modifiedDate",
        "type" : "date",
        "hibernateType" : "date",
        "fullyQualifiedType" : "date",
        "columnName" : "modifiedDate",
        "isPrimaryKey" : false,
        "notNull" : false,
        "length" : 10,
        "precision" : 19,
        "generator" : "assigned",
        "isRelated" : false
      }, {
        "fieldName" : "logo",
        "type" : "blob",
        "hibernateType" : "binary",
        "fullyQualifiedType" : "blob",
        "columnName" : "logo",
        "isPrimaryKey" : false,
        "notNull" : false,
        "length" : 255,
        "precision" : 19,
        "generator" : "assigned",
        "isRelated" : false
      } ],
      "entityName" : "Customer",
      "fullyQualifiedName" : "com.licensemanager.licensemanagerdb.Customer",
      "tableType" : "TABLE",
      "primaryFields" : [ "customerId" ]
    },
    "tableName" : "Customer",
    "tableType" : "TABLE",
    "filterFields" : { },
    "package" : "com.licensemanager.licensemanagerdb.Customer"
  },
  "get_associated_invoices" : {
    "_id" : "wm-get_associated_invoices-wm.ServiceVariable-1452356911989",
    "name" : "get_associated_invoices",
    "owner" : "Page",
    "category" : "wm.ServiceVariable",
    "dataBinding" : [ {
      "target" : "id",
      "value" : "bind:Widgets.customerList.selecteditem.customerId",
      "type" : "string"
    } ],
    "type" : "com.licensemanager.licensemanagerdb.CustomerInvoices",
    "service" : "licensemanagerdb",
    "operation" : "findAssociatedcustomerInvoiceses",
    "operationType" : "get",
    "serviceType" : "DataService",
    "wmServiceOperationInfo" : {
      "relativePath" : "/licensemanagerdb/Customer/{id:.+}/customerInvoiceses",
      "httpMethod" : "get",
      "name" : "findAssociatedcustomerInvoiceses",
      "parameters" : [ {
        "name" : "page",
        "parameterType" : "query",
        "type" : "integer"
      }, {
        "name" : "size",
        "parameterType" : "query",
        "type" : "integer"
      }, {
        "name" : "sort",
        "parameterType" : "query",
        "type" : "string"
      }, {
        "name" : "id",
        "parameterType" : "path",
        "type" : "integer"
      } ]
    },
    "dataSet" : {
      "dataValue" : ""
    },
    "isList" : false,
    "firstRow" : 0,
    "maxResults" : 20,
    "designMaxResults" : 10,
    "startUpdate" : false,
    "autoUpdate" : true,
    "inFlightBehavior" : "executeLast",
    "transformationRequired" : false,
    "saveInPhonegap" : false,
    "controller" : "Customer"
  },
  "get_selected_po_details" : {
    "_id" : "wm-get_selected_po_details-wm.LiveVariable-1451980574685",
    "name" : "get_selected_po_details",
    "owner" : "Page",
    "category" : "wm.LiveVariable",
    "dataBinding" : [ {
      "target" : "poNumber",
      "value" : "bind:Widgets.livelist3.selecteditem.po.poNumber",
      "type" : "string"
    } ],
    "operation" : "read",
    "dataSet" : {
      "dataValue" : ""
    },
    "type" : "Po",
    "isList" : false,
    "saveInPhonegap" : false,
    "firstRow" : 0,
    "maxResults" : 20,
    "designMaxResults" : 10,
    "startUpdate" : false,
    "autoUpdate" : true,
    "inFlightBehavior" : "executeLast",
    "transformationRequired" : false,
    "liveSource" : "licensemanagerdb",
    "ignoreCase" : false,
    "matchMode" : "start",
    "propertiesMap" : {
      "columns" : [ {
        "fieldName" : "customer",
        "type" : "integer",
        "hibernateType" : "integer",
        "fullyQualifiedType" : "integer",
        "columnName" : "customerID",
        "isPrimaryKey" : false,
        "notNull" : true,
        "length" : 255,
        "generator" : "assigned",
        "isRelated" : true,
        "defaultValue" : "0",
        "relatedTableName" : "Customer",
        "relatedEntityName" : "Customer",
        "relatedFieldName" : "customer.customerId",
        "isList" : false,
        "targetTable" : "Customer",
        "columns" : [ {
          "fieldName" : "customerId",
          "type" : "integer",
          "hibernateType" : "integer",
          "fullyQualifiedType" : "integer",
          "columnName" : "customerID",
          "isPrimaryKey" : true,
          "notNull" : true,
          "length" : 255,
          "precision" : 19,
          "generator" : "identity",
          "isRelated" : false,
          "defaultValue" : ""
        }, {
          "fieldName" : "createdBy",
          "type" : "string",
          "hibernateType" : "string",
          "fullyQualifiedType" : "string",
          "columnName" : "createdBy",
          "isPrimaryKey" : false,
          "notNull" : false,
          "length" : 80,
          "precision" : 19,
          "generator" : "assigned",
          "isRelated" : false
        }, {
          "fieldName" : "createdDate",
          "type" : "date",
          "hibernateType" : "date",
          "fullyQualifiedType" : "date",
          "columnName" : "createdDate",
          "isPrimaryKey" : false,
          "notNull" : false,
          "length" : 10,
          "precision" : 19,
          "generator" : "assigned",
          "isRelated" : false
        }, {
          "fieldName" : "address",
          "type" : "string",
          "hibernateType" : "string",
          "fullyQualifiedType" : "string",
          "columnName" : "address",
          "isPrimaryKey" : false,
          "notNull" : false,
          "length" : 255,
          "precision" : 19,
          "generator" : "assigned",
          "isRelated" : false
        }, {
          "fieldName" : "domain",
          "type" : "string",
          "hibernateType" : "string",
          "fullyQualifiedType" : "string",
          "columnName" : "domain",
          "isPrimaryKey" : false,
          "notNull" : false,
          "length" : 80,
          "precision" : 19,
          "generator" : "assigned",
          "isRelated" : false
        }, {
          "fieldName" : "name",
          "type" : "string",
          "hibernateType" : "string",
          "fullyQualifiedType" : "string",
          "columnName" : "name",
          "isPrimaryKey" : false,
          "notNull" : false,
          "length" : 100,
          "precision" : 19,
          "generator" : "assigned",
          "isRelated" : false
        }, {
          "fieldName" : "employees",
          "type" : "integer",
          "hibernateType" : "integer",
          "fullyQualifiedType" : "integer",
          "columnName" : "employees",
          "isPrimaryKey" : false,
          "notNull" : false,
          "length" : 255,
          "precision" : 19,
          "generator" : "assigned",
          "isRelated" : false
        }, {
          "fieldName" : "type",
          "type" : "string",
          "hibernateType" : "string",
          "fullyQualifiedType" : "string",
          "columnName" : "type",
          "isPrimaryKey" : false,
          "notNull" : false,
          "length" : 25,
          "precision" : 19,
          "generator" : "assigned",
          "isRelated" : false
        }, {
          "fieldName" : "website",
          "type" : "string",
          "hibernateType" : "string",
          "fullyQualifiedType" : "string",
          "columnName" : "website",
          "isPrimaryKey" : false,
          "notNull" : false,
          "length" : 255,
          "precision" : 19,
          "generator" : "assigned",
          "isRelated" : false
        }, {
          "fieldName" : "modifiedBy",
          "type" : "string",
          "hibernateType" : "string",
          "fullyQualifiedType" : "string",
          "columnName" : "modifiedBy",
          "isPrimaryKey" : false,
          "notNull" : false,
          "length" : 80,
          "precision" : 19,
          "generator" : "assigned",
          "isRelated" : false
        }, {
          "fieldName" : "modifiedDate",
          "type" : "date",
          "hibernateType" : "date",
          "fullyQualifiedType" : "date",
          "columnName" : "modifiedDate",
          "isPrimaryKey" : false,
          "notNull" : false,
          "length" : 10,
          "precision" : 19,
          "generator" : "assigned",
          "isRelated" : false
        }, {
          "fieldName" : "logo",
          "type" : "blob",
          "hibernateType" : "binary",
          "fullyQualifiedType" : "blob",
          "columnName" : "logo",
          "isPrimaryKey" : false,
          "notNull" : false,
          "length" : 255,
          "precision" : 19,
          "generator" : "assigned",
          "isRelated" : false
        } ]
      }, {
        "fieldName" : "customerContact",
        "type" : "integer",
        "hibernateType" : "integer",
        "fullyQualifiedType" : "integer",
        "columnName" : "customerContactID",
        "isPrimaryKey" : false,
        "notNull" : true,
        "length" : 255,
        "generator" : "assigned",
        "isRelated" : true,
        "defaultValue" : "0",
        "relatedTableName" : "CustomerContact",
        "relatedEntityName" : "CustomerContact",
        "relatedFieldName" : "customerContact.contactId",
        "isList" : false,
        "targetTable" : "CustomerContact",
        "columns" : [ {
          "fieldName" : "customer",
          "type" : "integer",
          "hibernateType" : "integer",
          "fullyQualifiedType" : "integer",
          "columnName" : "customerID",
          "isPrimaryKey" : false,
          "notNull" : true,
          "length" : 255,
          "generator" : "assigned",
          "isRelated" : true,
          "defaultValue" : "0",
          "targetTable" : "Customer"
        }, {
          "fieldName" : "contactId",
          "type" : "integer",
          "hibernateType" : "integer",
          "fullyQualifiedType" : "integer",
          "columnName" : "contactID",
          "isPrimaryKey" : true,
          "notNull" : true,
          "length" : 255,
          "precision" : 19,
          "generator" : "identity",
          "isRelated" : false,
          "defaultValue" : ""
        }, {
          "fieldName" : "designation",
          "type" : "string",
          "hibernateType" : "string",
          "fullyQualifiedType" : "string",
          "columnName" : "designation",
          "isPrimaryKey" : false,
          "notNull" : false,
          "length" : 80,
          "precision" : 19,
          "generator" : "assigned",
          "isRelated" : false
        }, {
          "fieldName" : "email",
          "type" : "string",
          "hibernateType" : "string",
          "fullyQualifiedType" : "string",
          "columnName" : "email",
          "isPrimaryKey" : false,
          "notNull" : false,
          "length" : 100,
          "precision" : 19,
          "generator" : "assigned",
          "isRelated" : false
        }, {
          "fieldName" : "location",
          "type" : "string",
          "hibernateType" : "string",
          "fullyQualifiedType" : "string",
          "columnName" : "location",
          "isPrimaryKey" : false,
          "notNull" : false,
          "length" : 80,
          "precision" : 19,
          "generator" : "assigned",
          "isRelated" : false
        }, {
          "fieldName" : "manager",
          "type" : "string",
          "hibernateType" : "string",
          "fullyQualifiedType" : "string",
          "columnName" : "manager",
          "isPrimaryKey" : false,
          "notNull" : false,
          "length" : 80,
          "precision" : 19,
          "generator" : "assigned",
          "isRelated" : false
        }, {
          "fieldName" : "name",
          "type" : "string",
          "hibernateType" : "string",
          "fullyQualifiedType" : "string",
          "columnName" : "name",
          "isPrimaryKey" : false,
          "notNull" : false,
          "length" : 80,
          "precision" : 19,
          "generator" : "assigned",
          "isRelated" : false
        }, {
          "fieldName" : "phone",
          "type" : "string",
          "hibernateType" : "string",
          "fullyQualifiedType" : "string",
          "columnName" : "phone",
          "isPrimaryKey" : false,
          "notNull" : false,
          "length" : 25,
          "precision" : 19,
          "generator" : "assigned",
          "isRelated" : false
        }, {
          "fieldName" : "createdBy",
          "type" : "string",
          "hibernateType" : "string",
          "fullyQualifiedType" : "string",
          "columnName" : "createdBy",
          "isPrimaryKey" : false,
          "notNull" : false,
          "length" : 80,
          "precision" : 19,
          "generator" : "assigned",
          "isRelated" : false
        }, {
          "fieldName" : "createdDate",
          "type" : "date",
          "hibernateType" : "date",
          "fullyQualifiedType" : "date",
          "columnName" : "createdDate",
          "isPrimaryKey" : false,
          "notNull" : false,
          "length" : 10,
          "precision" : 19,
          "generator" : "assigned",
          "isRelated" : false
        }, {
          "fieldName" : "modifiedBy",
          "type" : "string",
          "hibernateType" : "string",
          "fullyQualifiedType" : "string",
          "columnName" : "modifiedBy",
          "isPrimaryKey" : false,
          "notNull" : false,
          "length" : 80,
          "precision" : 19,
          "generator" : "assigned",
          "isRelated" : false
        }, {
          "fieldName" : "modifiedDate",
          "type" : "date",
          "hibernateType" : "date",
          "fullyQualifiedType" : "date",
          "columnName" : "modifiedDate",
          "isPrimaryKey" : false,
          "notNull" : false,
          "length" : 10,
          "precision" : 19,
          "generator" : "assigned",
          "isRelated" : false
        } ]
      }, {
        "fieldName" : "poNumber",
        "type" : "string",
        "hibernateType" : "string",
        "fullyQualifiedType" : "string",
        "columnName" : "poNumber",
        "isPrimaryKey" : true,
        "notNull" : true,
        "length" : 100,
        "precision" : 19,
        "generator" : "assigned",
        "isRelated" : false,
        "defaultValue" : ""
      }, {
        "fieldName" : "createdBy",
        "type" : "string",
        "hibernateType" : "string",
        "fullyQualifiedType" : "string",
        "columnName" : "createdBy",
        "isPrimaryKey" : false,
        "notNull" : false,
        "length" : 80,
        "precision" : 19,
        "generator" : "assigned",
        "isRelated" : false
      }, {
        "fieldName" : "createdDate",
        "type" : "date",
        "hibernateType" : "date",
        "fullyQualifiedType" : "date",
        "columnName" : "createdDate",
        "isPrimaryKey" : false,
        "notNull" : false,
        "length" : 10,
        "precision" : 19,
        "generator" : "assigned",
        "isRelated" : false
      }, {
        "fieldName" : "description",
        "type" : "string",
        "hibernateType" : "string",
        "fullyQualifiedType" : "string",
        "columnName" : "description",
        "isPrimaryKey" : false,
        "notNull" : false,
        "length" : 255,
        "precision" : 19,
        "generator" : "assigned",
        "isRelated" : false
      }, {
        "fieldName" : "modifiedBy",
        "type" : "string",
        "hibernateType" : "string",
        "fullyQualifiedType" : "string",
        "columnName" : "modifiedBy",
        "isPrimaryKey" : false,
        "notNull" : false,
        "length" : 80,
        "precision" : 19,
        "generator" : "assigned",
        "isRelated" : false
      }, {
        "fieldName" : "modifiedDate",
        "type" : "date",
        "hibernateType" : "date",
        "fullyQualifiedType" : "date",
        "columnName" : "modifiedDate",
        "isPrimaryKey" : false,
        "notNull" : false,
        "length" : 10,
        "precision" : 19,
        "generator" : "assigned",
        "isRelated" : false
      }, {
        "fieldName" : "poDate",
        "type" : "date",
        "hibernateType" : "date",
        "fullyQualifiedType" : "date",
        "columnName" : "poDate",
        "isPrimaryKey" : false,
        "notNull" : false,
        "length" : 10,
        "precision" : 19,
        "generator" : "assigned",
        "isRelated" : false
      }, {
        "fieldName" : "totalPrice",
        "type" : "integer",
        "hibernateType" : "integer",
        "fullyQualifiedType" : "integer",
        "columnName" : "totalPrice",
        "isPrimaryKey" : false,
        "notNull" : false,
        "length" : 255,
        "precision" : 19,
        "generator" : "assigned",
        "isRelated" : false,
        "defaultValue" : "0"
      }, {
        "fieldName" : "isEvaluation",
        "type" : "boolean",
        "hibernateType" : "boolean",
        "fullyQualifiedType" : "boolean",
        "columnName" : "isEvaluation",
        "isPrimaryKey" : false,
        "notNull" : false,
        "length" : 255,
        "precision" : 19,
        "generator" : "assigned",
        "isRelated" : false,
        "defaultValue" : "false"
      } ],
      "entityName" : "Po",
      "fullyQualifiedName" : "com.licensemanager.licensemanagerdb.Po",
      "tableType" : "TABLE",
      "primaryFields" : [ "poNumber" ]
    },
    "tableName" : "PO",
    "tableType" : "TABLE",
    "properties" : [ "customer", "customerContact" ],
    "relatedTables" : [ {
      "columnName" : "customer",
      "relationName" : "customer",
      "type" : "Customer",
      "watchOn" : "LicensemanagerdbCustomerData",
      "package" : "com.licensemanager.licensemanagerdb.Po"
    }, {
      "columnName" : "customerContact",
      "relationName" : "customerContact",
      "type" : "CustomerContact",
      "watchOn" : "LicensemanagerdbCustomerContactData",
      "package" : "com.licensemanager.licensemanagerdb.Po"
    } ],
    "filterFields" : { },
    "package" : "com.licensemanager.licensemanagerdb.Po"
  },
  "insert_license_details" : {
    "_id" : "wm-insert_license_details-wm.LiveVariable-1451979910413",
    "name" : "insert_license_details",
    "owner" : "Page",
    "category" : "wm.LiveVariable",
    "dataBinding" : [ {
      "target" : "createdBy",
      "value" : "bind:Variables.loggedInUser.dataSet.name",
      "type" : "string"
    }, {
      "target" : "createdDate",
      "value" : "bind:Variables.current_date.dataSet.dataValue",
      "type" : "date"
    }, {
      "target" : "customer",
      "value" : "bind:Widgets.customerList.selecteditem.customerId &&  Widgets.customerList.selecteditem",
      "type" : "number"
    }, {
      "target" : "licenseUrl",
      "value" : "bind:Widgets.download.hyperlink",
      "type" : "string"
    }, {
      "target" : "po",
      "value" : "bind:Variables.get_selected_po_details.dataSet.data[0]",
      "type" : "string"
    } ],
    "operation" : "insert",
    "dataSet" : {
      "dataValue" : ""
    },
    "type" : "Licenses",
    "isList" : false,
    "saveInPhonegap" : false,
    "firstRow" : 0,
    "maxResults" : 20,
    "designMaxResults" : 10,
    "startUpdate" : false,
    "autoUpdate" : false,
    "inFlightBehavior" : "executeLast",
    "transformationRequired" : false,
    "liveSource" : "licensemanagerdb",
    "ignoreCase" : false,
    "matchMode" : "start",
    "propertiesMap" : {
      "columns" : [ {
        "fieldName" : "customer",
        "type" : "integer",
        "hibernateType" : "integer",
        "fullyQualifiedType" : "integer",
        "columnName" : "customerID",
        "isPrimaryKey" : false,
        "notNull" : true,
        "length" : 255,
        "generator" : "assigned",
        "isRelated" : true,
        "defaultValue" : "0",
        "relatedTableName" : "Customer",
        "relatedEntityName" : "Customer",
        "relatedFieldName" : "customer.customerId",
        "isList" : false,
        "targetTable" : "Customer",
        "columns" : [ {
          "fieldName" : "customerId",
          "type" : "integer",
          "hibernateType" : "integer",
          "fullyQualifiedType" : "integer",
          "columnName" : "customerID",
          "isPrimaryKey" : true,
          "notNull" : true,
          "length" : 255,
          "precision" : 19,
          "generator" : "identity",
          "isRelated" : false,
          "defaultValue" : ""
        }, {
          "fieldName" : "createdBy",
          "type" : "string",
          "hibernateType" : "string",
          "fullyQualifiedType" : "string",
          "columnName" : "createdBy",
          "isPrimaryKey" : false,
          "notNull" : false,
          "length" : 80,
          "precision" : 19,
          "generator" : "assigned",
          "isRelated" : false
        }, {
          "fieldName" : "createdDate",
          "type" : "date",
          "hibernateType" : "date",
          "fullyQualifiedType" : "date",
          "columnName" : "createdDate",
          "isPrimaryKey" : false,
          "notNull" : false,
          "length" : 10,
          "precision" : 19,
          "generator" : "assigned",
          "isRelated" : false
        }, {
          "fieldName" : "address",
          "type" : "string",
          "hibernateType" : "string",
          "fullyQualifiedType" : "string",
          "columnName" : "address",
          "isPrimaryKey" : false,
          "notNull" : false,
          "length" : 255,
          "precision" : 19,
          "generator" : "assigned",
          "isRelated" : false
        }, {
          "fieldName" : "domain",
          "type" : "string",
          "hibernateType" : "string",
          "fullyQualifiedType" : "string",
          "columnName" : "domain",
          "isPrimaryKey" : false,
          "notNull" : false,
          "length" : 80,
          "precision" : 19,
          "generator" : "assigned",
          "isRelated" : false
        }, {
          "fieldName" : "name",
          "type" : "string",
          "hibernateType" : "string",
          "fullyQualifiedType" : "string",
          "columnName" : "name",
          "isPrimaryKey" : false,
          "notNull" : false,
          "length" : 100,
          "precision" : 19,
          "generator" : "assigned",
          "isRelated" : false
        }, {
          "fieldName" : "employees",
          "type" : "integer",
          "hibernateType" : "integer",
          "fullyQualifiedType" : "integer",
          "columnName" : "employees",
          "isPrimaryKey" : false,
          "notNull" : false,
          "length" : 255,
          "precision" : 19,
          "generator" : "assigned",
          "isRelated" : false
        }, {
          "fieldName" : "type",
          "type" : "string",
          "hibernateType" : "string",
          "fullyQualifiedType" : "string",
          "columnName" : "type",
          "isPrimaryKey" : false,
          "notNull" : false,
          "length" : 25,
          "precision" : 19,
          "generator" : "assigned",
          "isRelated" : false
        }, {
          "fieldName" : "website",
          "type" : "string",
          "hibernateType" : "string",
          "fullyQualifiedType" : "string",
          "columnName" : "website",
          "isPrimaryKey" : false,
          "notNull" : false,
          "length" : 255,
          "precision" : 19,
          "generator" : "assigned",
          "isRelated" : false
        }, {
          "fieldName" : "modifiedBy",
          "type" : "string",
          "hibernateType" : "string",
          "fullyQualifiedType" : "string",
          "columnName" : "modifiedBy",
          "isPrimaryKey" : false,
          "notNull" : false,
          "length" : 80,
          "precision" : 19,
          "generator" : "assigned",
          "isRelated" : false
        }, {
          "fieldName" : "modifiedDate",
          "type" : "date",
          "hibernateType" : "date",
          "fullyQualifiedType" : "date",
          "columnName" : "modifiedDate",
          "isPrimaryKey" : false,
          "notNull" : false,
          "length" : 10,
          "precision" : 19,
          "generator" : "assigned",
          "isRelated" : false
        }, {
          "fieldName" : "logo",
          "type" : "blob",
          "hibernateType" : "binary",
          "fullyQualifiedType" : "blob",
          "columnName" : "logo",
          "isPrimaryKey" : false,
          "notNull" : false,
          "length" : 255,
          "precision" : 19,
          "generator" : "assigned",
          "isRelated" : false
        } ]
      }, {
        "fieldName" : "po",
        "type" : "string",
        "hibernateType" : "string",
        "fullyQualifiedType" : "string",
        "columnName" : "poNumber",
        "isPrimaryKey" : false,
        "notNull" : true,
        "length" : 100,
        "generator" : "assigned",
        "isRelated" : true,
        "relatedTableName" : "PO",
        "relatedEntityName" : "Po",
        "relatedFieldName" : "po.poNumber",
        "isList" : false,
        "targetTable" : "PO",
        "columns" : [ {
          "fieldName" : "customer",
          "type" : "integer",
          "hibernateType" : "integer",
          "fullyQualifiedType" : "integer",
          "columnName" : "customerID",
          "isPrimaryKey" : false,
          "notNull" : true,
          "length" : 255,
          "generator" : "assigned",
          "isRelated" : true,
          "defaultValue" : "0",
          "targetTable" : "Customer"
        }, {
          "fieldName" : "customerContact",
          "type" : "integer",
          "hibernateType" : "integer",
          "fullyQualifiedType" : "integer",
          "columnName" : "customerContactID",
          "isPrimaryKey" : false,
          "notNull" : true,
          "length" : 255,
          "generator" : "assigned",
          "isRelated" : true,
          "defaultValue" : "0",
          "targetTable" : "CustomerContact"
        }, {
          "fieldName" : "poNumber",
          "type" : "string",
          "hibernateType" : "string",
          "fullyQualifiedType" : "string",
          "columnName" : "poNumber",
          "isPrimaryKey" : true,
          "notNull" : true,
          "length" : 100,
          "precision" : 19,
          "generator" : "assigned",
          "isRelated" : false,
          "defaultValue" : ""
        }, {
          "fieldName" : "createdBy",
          "type" : "string",
          "hibernateType" : "string",
          "fullyQualifiedType" : "string",
          "columnName" : "createdBy",
          "isPrimaryKey" : false,
          "notNull" : false,
          "length" : 80,
          "precision" : 19,
          "generator" : "assigned",
          "isRelated" : false
        }, {
          "fieldName" : "createdDate",
          "type" : "date",
          "hibernateType" : "date",
          "fullyQualifiedType" : "date",
          "columnName" : "createdDate",
          "isPrimaryKey" : false,
          "notNull" : false,
          "length" : 10,
          "precision" : 19,
          "generator" : "assigned",
          "isRelated" : false
        }, {
          "fieldName" : "description",
          "type" : "string",
          "hibernateType" : "string",
          "fullyQualifiedType" : "string",
          "columnName" : "description",
          "isPrimaryKey" : false,
          "notNull" : false,
          "length" : 255,
          "precision" : 19,
          "generator" : "assigned",
          "isRelated" : false
        }, {
          "fieldName" : "modifiedBy",
          "type" : "string",
          "hibernateType" : "string",
          "fullyQualifiedType" : "string",
          "columnName" : "modifiedBy",
          "isPrimaryKey" : false,
          "notNull" : false,
          "length" : 80,
          "precision" : 19,
          "generator" : "assigned",
          "isRelated" : false
        }, {
          "fieldName" : "modifiedDate",
          "type" : "date",
          "hibernateType" : "date",
          "fullyQualifiedType" : "date",
          "columnName" : "modifiedDate",
          "isPrimaryKey" : false,
          "notNull" : false,
          "length" : 10,
          "precision" : 19,
          "generator" : "assigned",
          "isRelated" : false
        }, {
          "fieldName" : "poDate",
          "type" : "date",
          "hibernateType" : "date",
          "fullyQualifiedType" : "date",
          "columnName" : "poDate",
          "isPrimaryKey" : false,
          "notNull" : false,
          "length" : 10,
          "precision" : 19,
          "generator" : "assigned",
          "isRelated" : false
        }, {
          "fieldName" : "totalPrice",
          "type" : "integer",
          "hibernateType" : "integer",
          "fullyQualifiedType" : "integer",
          "columnName" : "totalPrice",
          "isPrimaryKey" : false,
          "notNull" : false,
          "length" : 255,
          "precision" : 19,
          "generator" : "assigned",
          "isRelated" : false,
          "defaultValue" : "0"
        }, {
          "fieldName" : "isEvaluation",
          "type" : "boolean",
          "hibernateType" : "boolean",
          "fullyQualifiedType" : "boolean",
          "columnName" : "isEvaluation",
          "isPrimaryKey" : false,
          "notNull" : false,
          "length" : 255,
          "precision" : 19,
          "generator" : "assigned",
          "isRelated" : false,
          "defaultValue" : "false"
        } ]
      }, {
        "fieldName" : "licenseId",
        "type" : "integer",
        "hibernateType" : "integer",
        "fullyQualifiedType" : "integer",
        "columnName" : "licenseID",
        "isPrimaryKey" : true,
        "notNull" : true,
        "length" : 255,
        "precision" : 19,
        "generator" : "identity",
        "isRelated" : false,
        "defaultValue" : ""
      }, {
        "fieldName" : "createdBy",
        "type" : "string",
        "hibernateType" : "string",
        "fullyQualifiedType" : "string",
        "columnName" : "createdBy",
        "isPrimaryKey" : false,
        "notNull" : false,
        "length" : 80,
        "precision" : 19,
        "generator" : "assigned",
        "isRelated" : false
      }, {
        "fieldName" : "createdDate",
        "type" : "date",
        "hibernateType" : "date",
        "fullyQualifiedType" : "date",
        "columnName" : "createdDate",
        "isPrimaryKey" : false,
        "notNull" : false,
        "length" : 10,
        "precision" : 19,
        "generator" : "assigned",
        "isRelated" : false
      }, {
        "fieldName" : "licenseUrl",
        "type" : "string",
        "hibernateType" : "string",
        "fullyQualifiedType" : "string",
        "columnName" : "licenseURL",
        "isPrimaryKey" : false,
        "notNull" : false,
        "length" : 1024,
        "precision" : 19,
        "generator" : "assigned",
        "isRelated" : false
      }, {
        "fieldName" : "modifiedBy",
        "type" : "string",
        "hibernateType" : "string",
        "fullyQualifiedType" : "string",
        "columnName" : "modifiedBy",
        "isPrimaryKey" : false,
        "notNull" : false,
        "length" : 80,
        "precision" : 19,
        "generator" : "assigned",
        "isRelated" : false
      }, {
        "fieldName" : "modifiedDate",
        "type" : "date",
        "hibernateType" : "date",
        "fullyQualifiedType" : "date",
        "columnName" : "modifiedDate",
        "isPrimaryKey" : false,
        "notNull" : false,
        "length" : 10,
        "precision" : 19,
        "generator" : "assigned",
        "isRelated" : false
      } ],
      "entityName" : "Licenses",
      "fullyQualifiedName" : "com.licensemanager.licensemanagerdb.Licenses",
      "tableType" : "TABLE",
      "primaryFields" : [ "licenseId" ]
    },
    "tableName" : "Licenses",
    "tableType" : "TABLE",
    "properties" : [ "customer", "po" ],
    "relatedTables" : [ {
      "columnName" : "customer",
      "relationName" : "customer",
      "type" : "Customer",
      "watchOn" : "LicensemanagerdbCustomerData",
      "package" : "com.licensemanager.licensemanagerdb.Licenses"
    }, {
      "columnName" : "po",
      "relationName" : "po",
      "type" : "Po",
      "watchOn" : "LicensemanagerdbPoData",
      "package" : "com.licensemanager.licensemanagerdb.Licenses"
    } ],
    "filterFields" : { },
    "inputFields" : { },
    "package" : "com.licensemanager.licensemanagerdb.Licenses"
  },
  "LicenseGenGenerateLicense2" : {
    "_id" : "wm-LicenseGenGenerateLicense2-wm.ServiceVariable-1451456565241",
    "name" : "LicenseGenGenerateLicense2",
    "owner" : "Page",
    "category" : "wm.ServiceVariable",
    "dataBinding" : [ {
      "target" : "invoiceid",
      "value" : "bind:Widgets.customerList.selecteditem.name",
      "type" : "string"
    } ],
    "type" : "string",
    "service" : "licenseGen",
    "operation" : "generateLicense2",
    "operationType" : "post",
    "serviceType" : "JavaService",
    "wmServiceOperationInfo" : {
      "relativePath" : "/licenseGen/generateLicense2",
      "httpMethod" : "post",
      "name" : "generateLicense2",
      "produces" : [ "application/json" ],
      "parameters" : [ {
        "name" : "json",
        "parameterType" : "query",
        "type" : "string"
      }, {
        "name" : "invoiceid",
        "parameterType" : "query",
        "type" : "string"
      } ]
    },
    "dataSet" : {
      "dataValue" : ""
    },
    "isList" : false,
    "firstRow" : 0,
    "maxResults" : 20,
    "designMaxResults" : 10,
    "startUpdate" : false,
    "autoUpdate" : false,
    "onSuccess" : "insert_license_details",
    "inFlightBehavior" : "executeLast",
    "transformationRequired" : false,
    "saveInPhonegap" : false,
    "isDefault" : true,
    "controller" : "LicenseGen"
  },
  "LicenseGenGenerateLicenseID" : {
    "_id" : "wm-LicenseGenGenerateLicenseID-wm.ServiceVariable-1451456565246",
    "name" : "LicenseGenGenerateLicenseID",
    "owner" : "Page",
    "category" : "wm.ServiceVariable",
    "dataBinding" : [ ],
    "type" : "integer",
    "service" : "licenseGen",
    "operation" : "generateLicenseID",
    "operationType" : "get",
    "serviceType" : "JavaService",
    "wmServiceOperationInfo" : {
      "relativePath" : "/licenseGen/generateLicenseID",
      "httpMethod" : "get",
      "name" : "generateLicenseID",
      "parameters" : [ ]
    },
    "dataSet" : {
      "dataValue" : ""
    },
    "isList" : false,
    "firstRow" : 0,
    "maxResults" : 20,
    "designMaxResults" : 10,
    "startUpdate" : false,
    "autoUpdate" : false,
    "inFlightBehavior" : "executeLast",
    "transformationRequired" : false,
    "saveInPhonegap" : false,
    "isDefault" : true,
    "controller" : "LicenseGen"
  },
  "LicenseGenNewLicenseFile" : {
    "_id" : "wm-LicenseGenNewLicenseFile-wm.ServiceVariable-1451456565246",
    "name" : "LicenseGenNewLicenseFile",
    "owner" : "Page",
    "category" : "wm.ServiceVariable",
    "dataBinding" : [ {
      "target" : "newfilename",
      "value" : "bind:Widgets.livelist3.selecteditem.invoiceId",
      "type" : "string"
    } ],
    "type" : "com.wavemaker.runtime.file.model.DownloadResponse",
    "service" : "licenseGen",
    "operation" : "newLicenseFile",
    "operationType" : "get",
    "serviceType" : "JavaService",
    "wmServiceOperationInfo" : {
      "relativePath" : "/licenseGen/newLicenseFile",
      "httpMethod" : "get",
      "name" : "newLicenseFile",
      "produces" : [ "application/zip" ],
      "parameters" : [ {
        "name" : "urlfile",
        "parameterType" : "query",
        "type" : "string"
      }, {
        "name" : "newfilename",
        "parameterType" : "query",
        "type" : "string"
      } ]
    },
    "dataSet" : {
      "dataValue" : ""
    },
    "isList" : false,
    "firstRow" : 0,
    "maxResults" : 20,
    "designMaxResults" : 10,
    "startUpdate" : false,
    "autoUpdate" : false,
    "inFlightBehavior" : "executeLast",
    "transformationRequired" : false,
    "saveInPhonegap" : false,
    "isDefault" : true,
    "controller" : "LicenseGen"
  },
  "LicensemanagerdbCustomerData1" : {
    "_id" : "wm-LicensemanagerdbCustomerData1-wm.LiveVariable-1451976119162",
    "name" : "LicensemanagerdbCustomerData1",
    "owner" : "Page",
    "category" : "wm.LiveVariable",
    "dataBinding" : [ {
      "target" : "name",
      "value" : "bind:Widgets.search1.query",
      "type" : "string"
    } ],
    "operation" : "read",
    "dataSet" : {
      "dataValue" : ""
    },
    "type" : "Customer",
    "isList" : false,
    "saveInPhonegap" : false,
    "firstRow" : 0,
    "maxResults" : 6,
    "designMaxResults" : 10,
    "startUpdate" : true,
    "autoUpdate" : true,
    "inFlightBehavior" : "executeLast",
    "transformationRequired" : false,
    "liveSource" : "licensemanagerdb",
    "ignoreCase" : false,
    "matchMode" : "start",
    "propertiesMap" : {
      "columns" : [ {
        "fieldName" : "customerId",
        "type" : "integer",
        "hibernateType" : "integer",
        "fullyQualifiedType" : "integer",
        "columnName" : "customerID",
        "isPrimaryKey" : true,
        "notNull" : true,
        "length" : 255,
        "precision" : 19,
        "generator" : "identity",
        "isRelated" : false,
        "defaultValue" : ""
      }, {
        "fieldName" : "createdBy",
        "type" : "string",
        "hibernateType" : "string",
        "fullyQualifiedType" : "string",
        "columnName" : "createdBy",
        "isPrimaryKey" : false,
        "notNull" : false,
        "length" : 80,
        "precision" : 19,
        "generator" : "assigned",
        "isRelated" : false
      }, {
        "fieldName" : "createdDate",
        "type" : "date",
        "hibernateType" : "date",
        "fullyQualifiedType" : "date",
        "columnName" : "createdDate",
        "isPrimaryKey" : false,
        "notNull" : false,
        "length" : 10,
        "precision" : 19,
        "generator" : "assigned",
        "isRelated" : false
      }, {
        "fieldName" : "address",
        "type" : "string",
        "hibernateType" : "string",
        "fullyQualifiedType" : "string",
        "columnName" : "address",
        "isPrimaryKey" : false,
        "notNull" : false,
        "length" : 255,
        "precision" : 19,
        "generator" : "assigned",
        "isRelated" : false
      }, {
        "fieldName" : "domain",
        "type" : "string",
        "hibernateType" : "string",
        "fullyQualifiedType" : "string",
        "columnName" : "domain",
        "isPrimaryKey" : false,
        "notNull" : false,
        "length" : 80,
        "precision" : 19,
        "generator" : "assigned",
        "isRelated" : false
      }, {
        "fieldName" : "name",
        "type" : "string",
        "hibernateType" : "string",
        "fullyQualifiedType" : "string",
        "columnName" : "name",
        "isPrimaryKey" : false,
        "notNull" : false,
        "length" : 100,
        "precision" : 19,
        "generator" : "assigned",
        "isRelated" : false
      }, {
        "fieldName" : "employees",
        "type" : "integer",
        "hibernateType" : "integer",
        "fullyQualifiedType" : "integer",
        "columnName" : "employees",
        "isPrimaryKey" : false,
        "notNull" : false,
        "length" : 255,
        "precision" : 19,
        "generator" : "assigned",
        "isRelated" : false
      }, {
        "fieldName" : "type",
        "type" : "string",
        "hibernateType" : "string",
        "fullyQualifiedType" : "string",
        "columnName" : "type",
        "isPrimaryKey" : false,
        "notNull" : false,
        "length" : 25,
        "precision" : 19,
        "generator" : "assigned",
        "isRelated" : false
      }, {
        "fieldName" : "website",
        "type" : "string",
        "hibernateType" : "string",
        "fullyQualifiedType" : "string",
        "columnName" : "website",
        "isPrimaryKey" : false,
        "notNull" : false,
        "length" : 255,
        "precision" : 19,
        "generator" : "assigned",
        "isRelated" : false
      }, {
        "fieldName" : "modifiedBy",
        "type" : "string",
        "hibernateType" : "string",
        "fullyQualifiedType" : "string",
        "columnName" : "modifiedBy",
        "isPrimaryKey" : false,
        "notNull" : false,
        "length" : 80,
        "precision" : 19,
        "generator" : "assigned",
        "isRelated" : false
      }, {
        "fieldName" : "modifiedDate",
        "type" : "date",
        "hibernateType" : "date",
        "fullyQualifiedType" : "date",
        "columnName" : "modifiedDate",
        "isPrimaryKey" : false,
        "notNull" : false,
        "length" : 10,
        "precision" : 19,
        "generator" : "assigned",
        "isRelated" : false
      }, {
        "fieldName" : "logo",
        "type" : "blob",
        "hibernateType" : "binary",
        "fullyQualifiedType" : "blob",
        "columnName" : "logo",
        "isPrimaryKey" : false,
        "notNull" : false,
        "length" : 255,
        "precision" : 19,
        "generator" : "assigned",
        "isRelated" : false
      } ],
      "entityName" : "Customer",
      "fullyQualifiedName" : "com.licensemanager.licensemanagerdb.Customer",
      "tableType" : "TABLE",
      "primaryFields" : [ "customerId" ]
    },
    "tableName" : "Customer",
    "tableType" : "TABLE",
    "filterFields" : { },
    "package" : "com.licensemanager.licensemanagerdb.Customer"
  },
  "serviceVariable2" : {
    "_id" : "wm-serviceVariable2-serviceVariable1-wm.ServiceVariable-1451456268254",
    "name" : "serviceVariable2",
    "owner" : "Page",
    "category" : "wm.ServiceVariable",
    "dataBinding" : [ {
      "target" : "id",
      "value" : "bind:Widgets.customerList.selecteditem.customerId",
      "type" : "integer"
    } ],
    "type" : "com.licensemanager.licensemanagerdb.Po",
    "service" : "licensemanagerdb",
    "operation" : "findAssociatedpos",
    "operationType" : "get",
    "serviceType" : "DataService",
    "wmServiceOperationInfo" : {
      "relativePath" : "/licensemanagerdb/Customer/{id:.+}/pos",
      "httpMethod" : "get",
      "name" : "findAssociatedpos",
      "parameters" : [ {
        "name" : "page",
        "parameterType" : "query",
        "type" : "integer"
      }, {
        "name" : "size",
        "parameterType" : "query",
        "type" : "integer"
      }, {
        "name" : "sort",
        "parameterType" : "query",
        "type" : "string"
      }, {
        "name" : "id",
        "parameterType" : "path",
        "type" : "integer"
      } ]
    },
    "dataSet" : {
      "dataValue" : ""
    },
    "isList" : false,
    "firstRow" : 0,
    "maxResults" : 20,
    "designMaxResults" : 10,
    "startUpdate" : false,
    "autoUpdate" : true,
    "inFlightBehavior" : "executeLast",
    "transformationRequired" : false,
    "saveInPhonegap" : false,
    "controller" : "Customer"
  }
}